[
	{
		"_id": "61c038edf5ab457b781554ff",
		"records": [],
		"courseId": "61c038dff5ab457b7815549d",
		"pupilId": "61c038dff5ab457b781554a1"
	},
	{
		"_id": "61c038edf5ab457b78155500",
		"records": [],
		"courseId": "61c038dff5ab457b7815549d",
		"pupilId": "61c038dff5ab457b781554a0"
	},
	{
		"_id": "61c038edf5ab457b78155502",
		"records": [],
		"courseId": "61c038dff5ab457b7815549e",
		"pupilId": "61c038dff5ab457b781554a1"
	},
	{
		"_id": "61c038eff5ab457b78155569",
		"records": [],
		"courseId": "61c038eff5ab457b7815555f",
		"pupilId": "61c038eff5ab457b78155561"
	},
	{
		"_id": "61c046a76e212b2ef8d2d800",
		"records": [],
		"courseId": "61c043276e212b2ef8d2d7fe",
		"pupilId": "61c0431d6e212b2ef8d2d7fd"
	},
	{
		"_id": "61c0d8e46e212b2ef8d2d81d",
		"records": [],
		"courseId": "61c0d89a6e212b2ef8d2d81c",
		"pupilId": "61c0d3176e212b2ef8d2d807"
	},
	{
		"_id": "61c0d8e46e212b2ef8d2d81e",
		"records": [],
		"courseId": "61c0d89a6e212b2ef8d2d81c",
		"pupilId": "61c0d3326e212b2ef8d2d808"
	},
	{
		"_id": "61c0d8e46e212b2ef8d2d81f",
		"records": [],
		"courseId": "61c0d89a6e212b2ef8d2d81c",
		"pupilId": "61c0d3c36e212b2ef8d2d80c"
	},
	{
		"_id": "61c0d8e46e212b2ef8d2d820",
		"records": [],
		"courseId": "61c0d89a6e212b2ef8d2d81c",
		"pupilId": "61c0d3af6e212b2ef8d2d80b"
	},
	{
		"_id": "61c0d8e46e212b2ef8d2d821",
		"records": [],
		"courseId": "61c0d89a6e212b2ef8d2d81c",
		"pupilId": "61c0d4e86e212b2ef8d2d813"
	},
	{
		"_id": "61c0d8e46e212b2ef8d2d822",
		"records": [],
		"courseId": "61c0d89a6e212b2ef8d2d81c",
		"pupilId": "61c0d5126e212b2ef8d2d814"
	},
	{
		"_id": "61c0d8e46e212b2ef8d2d823",
		"records": [],
		"courseId": "61c0d89a6e212b2ef8d2d81c",
		"pupilId": "61c0d5366e212b2ef8d2d815"
	},
	{
		"_id": "61c0d8e46e212b2ef8d2d824",
		"records": [],
		"courseId": "61c0d89a6e212b2ef8d2d81c",
		"pupilId": "61c0d5496e212b2ef8d2d816"
	},
	{
		"_id": "61c0d8e46e212b2ef8d2d825",
		"records": [],
		"courseId": "61c0d89a6e212b2ef8d2d81c",
		"pupilId": "61c0d5656e212b2ef8d2d817"
	},
	{
		"_id": "61c0d8e46e212b2ef8d2d826",
		"records": [],
		"courseId": "61c0d89a6e212b2ef8d2d81c",
		"pupilId": "61c0d58c6e212b2ef8d2d818"
	},
	{
		"_id": "61c0d8e46e212b2ef8d2d827",
		"records": [],
		"courseId": "61c0d89a6e212b2ef8d2d81c",
		"pupilId": "61c0d5a16e212b2ef8d2d819"
	},
	{
		"_id": "61c0db1a6e212b2ef8d2d828",
		"records": [
			"61c0e9b06e212b2ef8d2d87f",
			"61c0ed1a6e212b2ef8d2d88c"
		],
		"courseId": "61c0d8616e212b2ef8d2d81a",
		"pupilId": "61c0d2e06e212b2ef8d2d805"
	},
	{
		"_id": "61c0db1a6e212b2ef8d2d829",
		"records": [
			"61c0ed276e212b2ef8d2d890"
		],
		"courseId": "61c0d8616e212b2ef8d2d81a",
		"pupilId": "61c0d2fe6e212b2ef8d2d806"
	},
	{
		"_id": "61c0db1a6e212b2ef8d2d82a",
		"records": [
			"61c0ed2d6e212b2ef8d2d893"
		],
		"courseId": "61c0d8616e212b2ef8d2d81a",
		"pupilId": "61c0d3176e212b2ef8d2d807"
	},
	{
		"_id": "61c0db1a6e212b2ef8d2d82b",
		"records": [
			"61c0ed306e212b2ef8d2d896"
		],
		"courseId": "61c0d8616e212b2ef8d2d81a",
		"pupilId": "61c0d3326e212b2ef8d2d808"
	},
	{
		"_id": "61c0db1a6e212b2ef8d2d82c",
		"records": [
			"61c0ed336e212b2ef8d2d899"
		],
		"courseId": "61c0d8616e212b2ef8d2d81a",
		"pupilId": "61c0d3696e212b2ef8d2d809"
	},
	{
		"_id": "61c0db1a6e212b2ef8d2d82d",
		"records": [
			"61c0ed386e212b2ef8d2d89f"
		],
		"courseId": "61c0d8616e212b2ef8d2d81a",
		"pupilId": "61c0d3956e212b2ef8d2d80a"
	},
	{
		"_id": "61c0db1a6e212b2ef8d2d82e",
		"records": [
			"61c0ed366e212b2ef8d2d89c"
		],
		"courseId": "61c0d8616e212b2ef8d2d81a",
		"pupilId": "61c0d3af6e212b2ef8d2d80b"
	},
	{
		"_id": "61c0db1a6e212b2ef8d2d82f",
		"records": [
			"61c0ed3b6e212b2ef8d2d8a2"
		],
		"courseId": "61c0d8616e212b2ef8d2d81a",
		"pupilId": "61c0d3c36e212b2ef8d2d80c"
	},
	{
		"_id": "61c0db1a6e212b2ef8d2d830",
		"records": [
			"61c0ed3e6e212b2ef8d2d8a5"
		],
		"courseId": "61c0d8616e212b2ef8d2d81a",
		"pupilId": "61c0d3d86e212b2ef8d2d80d"
	},
	{
		"_id": "61c0db1a6e212b2ef8d2d831",
		"records": [
			"61c0e9e96e212b2ef8d2d882",
			"61c0ed416e212b2ef8d2d8a9"
		],
		"courseId": "61c0d8616e212b2ef8d2d81a",
		"pupilId": "61c0d3f66e212b2ef8d2d80e"
	},
	{
		"_id": "61c0db1a6e212b2ef8d2d832",
		"records": [
			"61c0e9f16e212b2ef8d2d885",
			"61c0ed446e212b2ef8d2d8ae"
		],
		"courseId": "61c0d8616e212b2ef8d2d81a",
		"pupilId": "61c0d4076e212b2ef8d2d80f"
	},
	{
		"_id": "61c0db1a6e212b2ef8d2d833",
		"records": [
			"61c0e9f86e212b2ef8d2d888",
			"61c0ed466e212b2ef8d2d8b3"
		],
		"courseId": "61c0d8616e212b2ef8d2d81a",
		"pupilId": "61c0d44f6e212b2ef8d2d810"
	},
	{
		"_id": "61c0db1a6e212b2ef8d2d834",
		"records": [
			"61c0ed4f6e212b2ef8d2d8bd"
		],
		"courseId": "61c0d8616e212b2ef8d2d81a",
		"pupilId": "61c0d46c6e212b2ef8d2d811"
	},
	{
		"_id": "61c0db1a6e212b2ef8d2d835",
		"records": [
			"61c0ed4c6e212b2ef8d2d8ba"
		],
		"courseId": "61c0d8616e212b2ef8d2d81a",
		"pupilId": "61c0d4c36e212b2ef8d2d812"
	},
	{
		"_id": "61c0db1a6e212b2ef8d2d836",
		"records": [
			"61c0ed496e212b2ef8d2d8b7"
		],
		"courseId": "61c0d8616e212b2ef8d2d81a",
		"pupilId": "61c0d4e86e212b2ef8d2d813"
	},
	{
		"_id": "61c0db1a6e212b2ef8d2d837",
		"records": [
			"61c0ed546e212b2ef8d2d8c0"
		],
		"courseId": "61c0d8616e212b2ef8d2d81a",
		"pupilId": "61c0d5126e212b2ef8d2d814"
	},
	{
		"_id": "61c0db1a6e212b2ef8d2d838",
		"records": [
			"61c0ed566e212b2ef8d2d8c3"
		],
		"courseId": "61c0d8616e212b2ef8d2d81a",
		"pupilId": "61c0d5366e212b2ef8d2d815"
	},
	{
		"_id": "61c0db1a6e212b2ef8d2d839",
		"records": [
			"61c0ed5a6e212b2ef8d2d8c6"
		],
		"courseId": "61c0d8616e212b2ef8d2d81a",
		"pupilId": "61c0d5496e212b2ef8d2d816"
	},
	{
		"_id": "61c0db1a6e212b2ef8d2d83a",
		"records": [
			"61c0ed626e212b2ef8d2d8c9"
		],
		"courseId": "61c0d8616e212b2ef8d2d81a",
		"pupilId": "61c0d5656e212b2ef8d2d817"
	},
	{
		"_id": "61c0db1a6e212b2ef8d2d83b",
		"records": [
			"61c0ed656e212b2ef8d2d8cc"
		],
		"courseId": "61c0d8616e212b2ef8d2d81a",
		"pupilId": "61c0d58c6e212b2ef8d2d818"
	},
	{
		"_id": "61c0db1a6e212b2ef8d2d83c",
		"records": [
			"61c0ed696e212b2ef8d2d8cf"
		],
		"courseId": "61c0d8616e212b2ef8d2d81a",
		"pupilId": "61c0d5a16e212b2ef8d2d819"
	},
	{
		"_id": "61c0db246e212b2ef8d2d83d",
		"records": [
			"61c0ed8e6e212b2ef8d2d8d2",
			"61c0ed906e212b2ef8d2d8d5"
		],
		"courseId": "61c0d8816e212b2ef8d2d81b",
		"pupilId": "61c0d2e06e212b2ef8d2d805"
	},
	{
		"_id": "61c0db246e212b2ef8d2d83e",
		"records": [
			"61c0ed946e212b2ef8d2d8d9",
			"61c0ee026e212b2ef8d2d96a"
		],
		"courseId": "61c0d8816e212b2ef8d2d81b",
		"pupilId": "61c0d2fe6e212b2ef8d2d806"
	},
	{
		"_id": "61c0db246e212b2ef8d2d83f",
		"records": [
			"61c0ed996e212b2ef8d2d8dc",
			"61c0ed9a6e212b2ef8d2d8df"
		],
		"courseId": "61c0d8816e212b2ef8d2d81b",
		"pupilId": "61c0d3176e212b2ef8d2d807"
	},
	{
		"_id": "61c0db246e212b2ef8d2d840",
		"records": [
			"61c0ed9d6e212b2ef8d2d8e3",
			"61c0ed9f6e212b2ef8d2d8e6"
		],
		"courseId": "61c0d8816e212b2ef8d2d81b",
		"pupilId": "61c0d3326e212b2ef8d2d808"
	},
	{
		"_id": "61c0db246e212b2ef8d2d841",
		"records": [
			"61c0eda26e212b2ef8d2d8ea",
			"61c0eda36e212b2ef8d2d8ed"
		],
		"courseId": "61c0d8816e212b2ef8d2d81b",
		"pupilId": "61c0d3696e212b2ef8d2d809"
	},
	{
		"_id": "61c0db246e212b2ef8d2d842",
		"records": [
			"61c0eda66e212b2ef8d2d8f1",
			"61c0eda86e212b2ef8d2d8f4"
		],
		"courseId": "61c0d8816e212b2ef8d2d81b",
		"pupilId": "61c0d3956e212b2ef8d2d80a"
	},
	{
		"_id": "61c0db246e212b2ef8d2d843",
		"records": [
			"61c0edab6e212b2ef8d2d8f8",
			"61c0edad6e212b2ef8d2d8fb"
		],
		"courseId": "61c0d8816e212b2ef8d2d81b",
		"pupilId": "61c0d3af6e212b2ef8d2d80b"
	},
	{
		"_id": "61c0db246e212b2ef8d2d844",
		"records": [
			"61c0edb06e212b2ef8d2d8ff",
			"61c0edb26e212b2ef8d2d902"
		],
		"courseId": "61c0d8816e212b2ef8d2d81b",
		"pupilId": "61c0d3c36e212b2ef8d2d80c"
	},
	{
		"_id": "61c0db246e212b2ef8d2d845",
		"records": [
			"61c0edb56e212b2ef8d2d906",
			"61c0edb76e212b2ef8d2d909"
		],
		"courseId": "61c0d8816e212b2ef8d2d81b",
		"pupilId": "61c0d3d86e212b2ef8d2d80d"
	},
	{
		"_id": "61c0db246e212b2ef8d2d846",
		"records": [
			"61c0edb96e212b2ef8d2d90d",
			"61c0edbb6e212b2ef8d2d910"
		],
		"courseId": "61c0d8816e212b2ef8d2d81b",
		"pupilId": "61c0d3f66e212b2ef8d2d80e"
	},
	{
		"_id": "61c0db246e212b2ef8d2d847",
		"records": [
			"61c0edbe6e212b2ef8d2d914",
			"61c0edbf6e212b2ef8d2d917"
		],
		"courseId": "61c0d8816e212b2ef8d2d81b",
		"pupilId": "61c0d4076e212b2ef8d2d80f"
	},
	{
		"_id": "61c0db246e212b2ef8d2d848",
		"records": [
			"61c0edc36e212b2ef8d2d91b",
			"61c0edc56e212b2ef8d2d91e"
		],
		"courseId": "61c0d8816e212b2ef8d2d81b",
		"pupilId": "61c0d44f6e212b2ef8d2d810"
	},
	{
		"_id": "61c0db246e212b2ef8d2d849",
		"records": [
			"61c0edc96e212b2ef8d2d922",
			"61c0edcb6e212b2ef8d2d925"
		],
		"courseId": "61c0d8816e212b2ef8d2d81b",
		"pupilId": "61c0d46c6e212b2ef8d2d811"
	},
	{
		"_id": "61c0db246e212b2ef8d2d84a",
		"records": [
			"61c0edd76e212b2ef8d2d937",
			"61c0edd86e212b2ef8d2d93a"
		],
		"courseId": "61c0d8816e212b2ef8d2d81b",
		"pupilId": "61c0d4c36e212b2ef8d2d812"
	},
	{
		"_id": "61c0db246e212b2ef8d2d84b",
		"records": [
			"61c0ede06e212b2ef8d2d945",
			"61c0ede26e212b2ef8d2d948"
		],
		"courseId": "61c0d8816e212b2ef8d2d81b",
		"pupilId": "61c0d4e86e212b2ef8d2d813"
	},
	{
		"_id": "61c0db246e212b2ef8d2d84c",
		"records": [
			"61c0edd26e212b2ef8d2d930",
			"61c0edd46e212b2ef8d2d933"
		],
		"courseId": "61c0d8816e212b2ef8d2d81b",
		"pupilId": "61c0d5126e212b2ef8d2d814"
	},
	{
		"_id": "61c0db246e212b2ef8d2d84d",
		"records": [
			"61c0edea6e212b2ef8d2d953",
			"61c0edeb6e212b2ef8d2d956"
		],
		"courseId": "61c0d8816e212b2ef8d2d81b",
		"pupilId": "61c0d5366e212b2ef8d2d815"
	},
	{
		"_id": "61c0db246e212b2ef8d2d84e",
		"records": [
			"61c0edcd6e212b2ef8d2d929",
			"61c0edcf6e212b2ef8d2d92c"
		],
		"courseId": "61c0d8816e212b2ef8d2d81b",
		"pupilId": "61c0d5496e212b2ef8d2d816"
	},
	{
		"_id": "61c0db246e212b2ef8d2d84f",
		"records": [
			"61c0edf16e212b2ef8d2d95a",
			"61c0edfa6e212b2ef8d2d95c"
		],
		"courseId": "61c0d8816e212b2ef8d2d81b",
		"pupilId": "61c0d5656e212b2ef8d2d817"
	},
	{
		"_id": "61c0db246e212b2ef8d2d850",
		"records": [
			"61c0eddc6e212b2ef8d2d93e",
			"61c0eddd6e212b2ef8d2d941"
		],
		"courseId": "61c0d8816e212b2ef8d2d81b",
		"pupilId": "61c0d58c6e212b2ef8d2d818"
	},
	{
		"_id": "61c0db246e212b2ef8d2d851",
		"records": [
			"61c0ede56e212b2ef8d2d94c",
			"61c0ede66e212b2ef8d2d94f"
		],
		"courseId": "61c0d8816e212b2ef8d2d81b",
		"pupilId": "61c0d5a16e212b2ef8d2d819"
	}
]