[
	{
		"_id": "61c0d20b6e212b2ef8d2d802",
		"label": "2019/20",
		"startdate": "9.9.2019",
		"enddate": "10.7.2020",
		"state": "inactive",
		"userId": "61c03d736e212b2ef8d2d7f9"
	},
	{
		"_id": "61c0d2396e212b2ef8d2d803",
		"label": "2020/21",
		"startdate": "7.9.2020",
		"enddate": "9.7.2021",
		"state": "inactive",
		"userId": "61c03d736e212b2ef8d2d7f9"
	},
	{
		"_id": "61c0d2696e212b2ef8d2d804",
		"label": "2021/22",
		"startdate": "6.9.2021",
		"enddate": "8.7.2022",
		"state": "active",
		"userId": "61c03d736e212b2ef8d2d7f9"
	}
]